// Jest Snapshot v1, https://goo.gl/fbAQLP

exports[`Font Selector should render a drop down to select font 1`] = `
<Fragment>
  <div
    className="FontSelector"
  >
    <span>
      Choose a font:
    </span>
    <div
      className="FontSelector__select"
    >
      <label
        className="FontSelector__label"
        key="Al-Kanz"
      >
        <input
          checked={true}
          onChange={[Function]}
          type="radio"
          value="Al-Kanz"
        />
        <a
          href="https://my.syncplicity.com/share/oeiquvsxrvdm7ls/Al-Kanz%20fonts"
          rel="noopener noreferrer"
          target="_blank"
        >
          Al-Kanz
        </a>
      </label>
      <label
        className="FontSelector__label"
        key="Kanz-al-Marjaan"
      >
        <input
          checked={false}
          onChange={[Function]}
          type="radio"
          value="Kanz-al-Marjaan"
        />
        <a
          href="https://my.syncplicity.com/share/6uk1jz6dtmt8s57/Kanz-al-Marjaan"
          rel="noopener noreferrer"
          target="_blank"
        >
          Kanz-al-Marjaan
        </a>
      </label>
    </div>
  </div>
  <div
    className="FontSelector__note"
  >
    Note: Please download the fonts and install it on your machine to render the arabic letters in the above fonts
    <br />
    The fonts can also be downloaded from the 
    <a
      href="http://nujoomapps.com/product/al-kanz-fonts/"
      rel="noopener noreferrer"
      target="_blank"
    >
      Nujoom Apps
    </a>
     website, the creators of the font files.
  </div>
</Fragment>
`;
